projects/VLSI/Generic N bit ALU/result icarus/alu_test.vcd
$date
	Sun Jul 20 07:16:00 2025
$end
$version
	Icarus Verilog
$end
$timescale
	1s
$end
$scope module alu_testbench $end
$var wire 8 ! status [7:0] $end
$var wire 1 " Zsc $end
$var wire 16 # Z [15:0] $end
$var parameter 32 $ N $end
$var reg 16 % A [15:0] $end
$var reg 16 & B [15:0] $end
$var reg 1 ' clk $end
$var reg 1 ( rst_n $end
$var reg 8 ) sel [7:0] $end
$scope module DUT $end
$var wire 16 * A [15:0] $end
$var wire 16 + B [15:0] $end
$var wire 1 ' clk $end
$var wire 8 , opcode [7:0] $end
$var wire 1 ( reset_n $end
$var wire 8 - sel [7:0] $end
$var parameter 32 . N $end
$var reg 16 / Z [15:0] $end
$var reg 16 0 Z_next [15:0] $end
$var reg 1 " Zsc $end
$var reg 1 1 Zsc_next $end
$var reg 8 2 status [7:0] $end
$var reg 8 3 status_next [7:0] $end
$upscope $end
$scope task test_operation $end
$var reg 1600 4 description [1600:1] $end
$var reg 17 5 expected_sum [16:0] $end
$var reg 16 6 expected_z [15:0] $end
$var reg 1 7 expected_zsc $end
$var reg 16 8 input_a [15:0] $end
$var reg 16 9 input_b [15:0] $end
$var reg 8 : operation [7:0] $end
$upscope $end
$scope task verify_operation $end
$var reg 1600 ; description [1600:1] $end
$var reg 1 < error_found $end
$var reg 1 = expected_carry $end
$var reg 1 > expected_overflow $end
$var reg 1 ? expected_parity $end
$var reg 1 @ expected_sign $end
$var reg 17 A expected_sum [16:0] $end
$var reg 16 B expected_z [15:0] $end
$var reg 1 C expected_zero $end
$var reg 1 D expected_zsc $end
$var reg 16 E input_a [15:0] $end
$var reg 16 F input_b [15:0] $end
$var reg 8 G operation [7:0] $end
$upscope $end
$upscope $end
$enddefinitions $end
$comment Show the parameter values. $end
$dumpall
b10000 .
b10000 $
$end
#0
$dumpvars
bx G
bx F
bx E
xD
xC
bx B
bx A
x@
x?
x>
x=
x<
bx ;
bx :
bx 9
bx 8
x7
bx 6
bx 5
bx 4
b1100 3
bx 2
01
b0 0
bx /
b0 -
b0 ,
b0 +
b0 *
b0 )
0(
0'
b0 &
b0 %
bx #
x"
bx !
$end
#5
b0 !
b0 2
0"
b0 #
b0 /
1'
#10
0'
#15
1'
#20
0'
#25
b1100 !
b1100 2
1(
1'
#30
0'
#35
1'
#40
0'
#45
b110100010101100 0
b0 3
b101011001111000 &
b101011001111000 +
b1001000110100 %
b1001000110100 *
b110100010101100 6
b110100010101100 5
b100000101000100010001000011101000100000010011100110111101110010011011010110000101101100 4
b101011001111000 9
b1001000110100 8
b0 :
1'
#50
0'
#55
b0 !
b0 2
b110100010101100 #
b110100010101100 /
1'
#60
0'
#65
1'
#66
b10010 3
b1000000000000000 0
b1 &
b1 +
b111111111111111 %
b111111111111111 *
b1000000000000000 6
b1000000000000000 5
b100000101000100010001000011101000100000010100000110111101110011001000000100111101110110011001010111001001100110011011000110111101110111 4
b1 9
b111111111111111 8
0>
0C
0?
0@
0=
b110100010101100 B
b110100010101100 A
0<
b100000101000100010001000011101000100000010011100110111101110010011011010110000101101100 ;
b101011001111000 F
b1001000110100 E
b0 G
#70
0'
#75
b10010 !
b10010 2
b1000000000000000 #
b1000000000000000 /
1'
#80
0'
#85
1'
#86
b11101 3
b0 0
b1000000000000000 &
b1000000000000000 +
b1000000000000000 %
b1000000000000000 *
b0 6
b10000000000000000 5
b100000101000100010001000011101000100000010011100110010101100111001000000100111101110110011001010111001001100110011011000110111101110111 4
b1000000000000000 9
b1000000000000000 8
1>
1@
b1000000000000000 B
b1000000000000000 A
b100000101000100010001000011101000100000010100000110111101110011001000000100111101110110011001010111001001100110011011000110111101110111 ;
b1 F
b111111111111111 E
#90
0'
#95
b11101 !
b11101 2
b0 #
b0 /
1'
#100
0'
#105
1'
#106
b1101 3
b1 &
b1 +
b1111111111111111 %
b1111111111111111 *
b1000001010001000100010000111010001000000101101001100101011100100110111100100000010100100110010101110011011101010110110001110100 4
b1 9
b1111111111111111 8
1C
1?
0@
1=
b0 B
b10000000000000000 A
b100000101000100010001000011101000100000010011100110010101100111001000000100111101110110011001010111001001100110011011000110111101110111 ;
b1000000000000000 F
b1000000000000000 E
#110
0'
#115
b1101 !
b1101 2
1'
#120
0'
#125
1'
#126
b1100 3
b0 &
b0 +
b0 %
b0 *
b0 5
b1000001010001000100010000111010001000000101101001100101011100100110111100100000001010110010000001011010011001010111001001101111 4
b0 9
b0 8
0>
b1000001010001000100010000111010001000000101101001100101011100100110111100100000010100100110010101110011011101010110110001110100 ;
b1 F
b1111111111111111 E
#130
0'
#135
b1100 !
b1100 2
1'
#140
0'
#145
1'
#146
b1111111111111110 0
b11 3
b1111111111111111 &
b1111111111111111 +
b1111111111111111 %
b1111111111111111 *
b1111111111111110 6
b11111111111111110 5
b10000010100010001000100001110100010000000101101001100010010000000101011001000000010110100110001 4
b1111111111111111 9
b1111111111111111 8
0=
b0 A
b1000001010001000100010000111010001000000101101001100101011100100110111100100000001010110010000001011010011001010111001001101111 ;
b0 F
b0 E
#150
0'
#155
b11 !
b11 2
b1111111111111110 #
b1111111111111110 /
1'
#160
0'
#165
1'
#166
b1100 3
b0 0
b101010101010101 &
b101010101010101 +
b1010101010101010 %
b1010101010101010 *
b1 ,
b1 )
b1 -
b0 6
b1000001010011100100010000111010001000000100000101101100011101000110010101110010011011100110000101110100011010010110111001100111 4
b101010101010101 9
b1010101010101010 8
b1 :
0C
0?
1@
1=
b1111111111111110 B
b11111111111111110 A
b10000010100010001000100001110100010000000101101001100010010000000101011001000000010110100110001 ;
b1111111111111111 F
b1111111111111111 E
#170
0'
#175
b1100 !
b1100 2
b0 #
b0 /
1'
#180
0'
#185
1'
#186
b1111111111111111 0
b100 3
b1111000011110000 &
b1111000011110000 +
b111100001111 %
b111100001111 *
b10 ,
b10 )
b10 -
b1111111111111111 6
b100111101010010001110100010000001000011011011110110110101110000011011000110010101101101011001010110111001110100011000010111001001111001 4
b1111000011110000 9
b111100001111 8
b10 :
1C
1?
b0 B
b1000001010011100100010000111010001000000100000101101100011101000110010101110010011011100110000101110100011010010110111001100111 ;
b101010101010101 F
b1010101010101010 E
b1 G
#190
0'
#195
b100 !
b100 2
b1111111111111111 #
b1111111111111111 /
1'
#200
0'
#205
1'
#206
b1100 3
b0 0
b1111111111111111 &
b1111111111111111 +
b1111111111111111 %
b1111111111111111 *
b11 ,
b11 )
b11 -
b0 6
b100111001000001010011100100010000111010001000000100000101101100011011000010000001101111011011100110010101110011 4
b1111111111111111 9
b1111111111111111 8
b11 :
0C
b1111111111111111 B
b100111101010010001110100010000001000011011011110110110101110000011011000110010101101101011001010110111001110100011000010111001001111001 ;
b1111000011110000 F
b111100001111 E
b10 G
#210
0'
#215
b1100 !
b1100 2
b0 #
b0 /
1'
#220
0'
#225
1'
#226
b101101001011010 0
b100 3
b0 &
b0 +
b1010010110100101 %
b1010010110100101 *
b100 ,
b100 )
b100 -
b101101001011010 6
b100111001001111010101000010000001000001001110100010000001010000011000010111010001110100011001010111001001101110 4
b0 9
b1010010110100101 8
b100 :
1C
b0 B
b100111001000001010011100100010000111010001000000100000101101100011011000010000001101111011011100110010101110011 ;
b1111111111111111 F
b1111111111111111 E
b11 G
#230
0'
#235
b100 !
b100 2
b101101001011010 #
b101101001011010 /
1'
#240
0'
#245
1'
#246
b100 3
b101101001011010 0
b1010010110100101 &
b1010010110100101 +
b0 %
b0 *
b101 ,
b101 )
b101 -
b100111001001111010101000010000001000010001110100010000001010000011000010111010001110100011001010111001001101110 4
b1010010110100101 9
b0 8
b101 :
0C
b101101001011010 B
b100111001001111010101000010000001000001001110100010000001010000011000010111010001110100011001010111001001101110 ;
b0 F
b1010010110100101 E
b100 G
#250
0'
#255
1'
#260
0'
#265
1'
#266
11
b0 3
b0 0
b0 &
b0 +
b1111111111111111 %
b1111111111111111 *
b110 ,
b110 )
b110 -
bx 6
17
b10100100100010101000100001000000100000101001110010001000011101000100000010000010110110001101100001000000011000101110011 4
b0 9
b1111111111111111 8
b110 :
b100111001001111010101000010000001000010001110100010000001010000011000010111010001110100011001010111001001101110 ;
b1010010110100101 F
b0 E
b101 G
#270
0'
#275
b0 !
b0 2
1"
b0 #
b0 /
1'
#280
0'
#285
1'
#286
11
b1 %
b1 *
b111 ,
b111 )
b111 -
b10100100100010101000100001000000100111101010010001110100010000001001111011011100110010100100000011000100110100101110100 4
b1 8
b111 :
0?
1D
b10100100100010101000100001000000100000101001110010001000011101000100000010000010110110001101100001000000011000101110011 ;
b0 F
b1111111111111111 E
b110 G
#290
0'
#295
1'
#300
0'
#305
1'
#306
b1100 3
01
b0 %
b0 *
b110 ,
b110 )
b110 -
07
b1010010010001010100010000100000010000010100111001000100001110100010000001011010011001010111001001101111 4
b0 8
b110 :
b10100100100010101000100001000000100111101010010001110100010000001001111011011100110010100100000011000100110100101110100 ;
b1 E
b111 G
#310
0'
#315
b1100 !
b1100 2
0"
1'
#320
0'
#325
1'
#326
b1100 3
b111 ,
b111 )
b111 -
b10100100100010101000100001000000100111101010010001110100010000001011010011001010111001001101111 4
b111 :
1C
1?
0D
b1010010010001010100010000100000010000010100111001000100001110100010000001011010011001010111001001101111 ;
b0 E
b110 G
#330
0'
#335
1'
#340
0'
#345
1'
#346
x1
bx 0
b0 3
b101011001111000 &
b101011001111000 +
b1001000110100 %
b1001000110100 *
b11111111 ,
b11111111 )
b11111111 -
x7
b1010101011011100110101101101110011011110111011101101110001000000100111101110000 4
b101011001111000 9
b1001000110100 8
b11111111 :
b10100100100010101000100001000000100111101010010001110100010000001011010011001010111001001101111 ;
b111 G
#350
0'
#355
b0 !
b0 2
x"
bx #
bx /
1'
#360
0'
#365
1'
#366
b1010101011011100110101101101110011011110111011101101110001000000100111101110000 ;
b101011001111000 F
b1001000110100 E
b11111111 G
