projects/VLSI/Shift Registers/piso_sipo_clean.vcd
$date
	Fri Jul 25 10:43:25 2025
$end
$version
	Icarus Verilog
$end
$timescale
	1s
$end
$scope module tb_PISO_SIPO_clean $end
$var wire 32 ! sipo_data_out [31:0] $end
$var wire 32 " piso_verify_data [31:0] $end
$var wire 1 # piso_serial_out $end
$var parameter 32 $ CLK_PERIOD $end
$var parameter 32 % N $end
$var parameter 32 & TEST_WIDTH $end
$var reg 1 ' clk $end
$var reg 32 ( piso_data_in [31:0] $end
$var reg 1 ) piso_load $end
$var reg 1 * piso_serial_in $end
$var reg 1 + piso_verify_load $end
$var reg 1 , reset_n $end
$var reg 1 - sipo_load $end
$var integer 32 . test_num [31:0] $end
$scope module piso_dut $end
$var wire 1 ' clk $end
$var wire 32 / data_bus [31:0] $end
$var wire 1 ) load $end
$var wire 1 , reset_n $end
$var wire 1 * serial_in $end
$var wire 1 # serial_out $end
$var wire 2 0 opcode [1:0] $end
$var parameter 32 1 N $end
$var reg 32 2 shift_reg [31:0] $end
$upscope $end
$scope module sipo_endtoend $end
$var wire 1 ' clk $end
$var wire 1 3 default_serial_in $end
$var wire 1 - load $end
$var wire 1 , reset_n $end
$var wire 1 # serial_in $end
$var wire 1 4 serial_out $end
$var wire 2 5 opcode [1:0] $end
$var parameter 32 6 N $end
$var reg 32 7 shift_reg [31:0] $end
$var reg 32 8 store_reg [31:0] $end
$upscope $end
$scope module sipo_verify $end
$var wire 1 ' clk $end
$var wire 1 9 default_serial_in $end
$var wire 1 + load $end
$var wire 1 , reset_n $end
$var wire 1 # serial_in $end
$var wire 1 : serial_out $end
$var wire 2 ; opcode [1:0] $end
$var parameter 32 < N $end
$var reg 32 = shift_reg [31:0] $end
$var reg 32 > store_reg [31:0] $end
$upscope $end
$scope task test_end_to_end $end
$var reg 32 ? pattern [31:0] $end
$upscope $end
$scope task test_piso_standalone $end
$var reg 32 @ pattern [31:0] $end
$upscope $end
$scope task test_single_pattern $end
$var reg 32 A pattern [31:0] $end
$var integer 32 B test_id [31:0] $end
$upscope $end
$upscope $end
$enddefinitions $end
$comment Show the parameter values. $end
$dumpall
b100000 <
b100000 6
b100000 1
b100000 &
b10000 %
b1010 $
$end
#0
$dumpvars
bx B
bx A
bx @
bx ?
bx >
bx =
b0 ;
x:
09
bx 8
bx 7
b0 5
x4
03
bx 2
b0 0
b0 /
bx .
0-
0,
0+
0*
0)
b0 (
0'
x#
bx "
bx !
$end
#5
0#
04
0:
b0 2
b0 7
b0 !
b0 8
b0 =
b0 "
b0 >
1'
#10
0'
#15
1'
#20
0'
#25
1'
#30
0'
b10 0
b10 5
b10 ;
1,
#35
1'
#40
0'
#45
1'
#50
0'
b11 0
1)
b11011110101011011011111011101111 (
b11011110101011011011111011101111 /
b11011110101011011011111011101111 @
b1 B
b11011110101011011011111011101111 A
b0 .
#55
1#
b11011110101011011011111011101111 2
1'
#60
0'
b10 0
0)
#65
b10111101010110110111110111011110 2
b1 7
b1 =
1'
#70
0'
#75
0#
b11 =
b11 7
b1111010101101101111101110111100 2
1'
#80
0'
#85
1#
b11110101011011011111011101111000 2
b110 7
b110 =
1'
#90
0'
#95
b1101 =
b1101 7
b11101010110110111110111011110000 2
1'
#100
0'
#105
b11010101101101111101110111100000 2
b11011 7
b11011 =
1'
#110
0'
#115
b110111 =
b110111 7
b10101011011011111011101111000000 2
1'
#120
0'
#125
0#
b1010110110111110111011110000000 2
b1101111 7
b1101111 =
1'
#130
0'
#135
1#
b11011110 =
b11011110 7
b10101101101111101110111100000000 2
1'
#140
0'
#145
0#
b1011011011111011101111000000000 2
b110111101 7
b110111101 =
1'
#150
0'
#155
1#
b1101111010 =
b1101111010 7
b10110110111110111011110000000000 2
1'
#160
0'
#165
0#
b1101101111101110111100000000000 2
b11011110101 7
b11011110101 =
1'
#170
0'
#175
1#
b110111101010 =
b110111101010 7
b11011011111011101111000000000000 2
1'
#180
0'
#185
b10110111110111011110000000000000 2
b1101111010101 7
b1101111010101 =
1'
#190
0'
#195
0#
b11011110101011 =
b11011110101011 7
b1101111101110111100000000000000 2
1'
#200
0'
#205
1#
b11011111011101111000000000000000 2
b110111101010110 7
b110111101010110 =
1'
#210
0'
#215
b1101111010101101 =
b1101111010101101 7
b10111110111011110000000000000000 2
1'
#220
0'
#225
0#
b1111101110111100000000000000000 2
b11011110101011011 7
b11011110101011011 =
1'
#230
0'
#235
1#
b110111101010110110 =
b110111101010110110 7
b11111011101111000000000000000000 2
1'
#240
0'
#245
b11110111011110000000000000000000 2
b1101111010101101101 7
b1101111010101101101 =
1'
#250
0'
#255
b11011110101011011011 =
b11011110101011011011 7
b11101110111100000000000000000000 2
1'
#260
0'
#265
b11011101111000000000000000000000 2
b110111101010110110111 7
b110111101010110110111 =
1'
#270
0'
#275
b1101111010101101101111 =
b1101111010101101101111 7
b10111011110000000000000000000000 2
1'
#280
0'
#285
0#
b1110111100000000000000000000000 2
b11011110101011011011111 7
b11011110101011011011111 =
1'
#290
0'
#295
1#
b110111101010110110111110 =
b110111101010110110111110 7
b11101111000000000000000000000000 2
1'
#300
0'
#305
b11011110000000000000000000000000 2
b1101111010101101101111101 7
b1101111010101101101111101 =
1'
#310
0'
#315
b11011110101011011011111011 =
b11011110101011011011111011 7
b10111100000000000000000000000000 2
1'
#320
0'
#325
0#
b1111000000000000000000000000000 2
b110111101010110110111110111 7
b110111101010110110111110111 =
1'
#330
0'
#335
1#
b1101111010101101101111101110 =
b1101111010101101101111101110 7
b11110000000000000000000000000000 2
1'
#340
0'
#345
b11100000000000000000000000000000 2
b11011110101011011011111011101 7
b11011110101011011011111011101 =
1'
#350
0'
#355
b110111101010110110111110111011 =
b110111101010110110111110111011 7
b11000000000000000000000000000000 2
1'
#360
0'
#365
b10000000000000000000000000000000 2
b1101111010101101101111101110111 7
b1101111010101101101111101110111 =
1'
#370
0'
#375
1:
14
0#
b11011110101011011011111011101111 =
b11011110101011011011111011101111 7
b0 2
1'
#380
0'
b11 ;
1+
#385
b10111101010110110111110111011110 7
b11011110101011011011111011101111 "
b11011110101011011011111011101111 >
1'
#390
0'
b10 ;
0+
#395
04
b10111101010110110111110111011110 =
b1111010101101101111101110111100 7
1'
#400
0'
b11 0
1)
b11011110101011011011111011101111 ?
#405
1#
14
0:
b11011110101011011011111011101111 2
b11110101011011011111011101111000 7
b1111010101101101111101110111100 =
1'
#410
0'
b10 0
0)
#415
1:
b11110101011011011111011101111001 =
b11101010110110111110111011110001 7
b10111101010110110111110111011110 2
1'
#420
0'
#425
0#
b1111010101101101111101110111100 2
b11010101101101111101110111100011 7
b11101010110110111110111011110011 =
1'
#430
0'
#435
1#
b11010101101101111101110111100110 =
b10101011011011111011101111000110 7
b11110101011011011111011101111000 2
1'
#440
0'
#445
04
b11101010110110111110111011110000 2
b1010110110111110111011110001101 7
b10101011011011111011101111001101 =
1'
#450
0'
#455
0:
14
b1010110110111110111011110011011 =
b10101101101111101110111100011011 7
b11010101101101111101110111100000 2
1'
#460
0'
#465
04
1:
b10101011011011111011101111000000 2
b1011011011111011101111000110111 7
b10101101101111101110111100110111 =
1'
#470
0'
#475
0:
14
0#
b1011011011111011101111001101111 =
b10110110111110111011110001101111 7
b1010110110111110111011110000000 2
1'
#480
0'
#485
1#
04
1:
b10101101101111101110111100000000 2
b1101101111101110111100011011110 7
b10110110111110111011110011011110 =
1'
#490
0'
#495
0:
14
0#
b1101101111101110111100110111101 =
b11011011111011101111000110111101 7
b1011011011111011101111000000000 2
1'
#500
0'
#505
1#
1:
b10110110111110111011110000000000 2
b10110111110111011110001101111010 7
b11011011111011101111001101111010 =
1'
#510
0'
#515
04
0#
b10110111110111011110011011110101 =
b1101111101110111100011011110101 7
b1101101111101110111100000000000 2
1'
#520
0'
#525
1#
14
0:
b11011011111011101111000000000000 2
b11011111011101111000110111101010 7
b1101111101110111100110111101010 =
1'
#530
0'
#535
1:
b11011111011101111001101111010101 =
b10111110111011110001101111010101 7
b10110111110111011110000000000000 2
1'
#540
0'
#545
0#
04
b1101111101110111100000000000000 2
b1111101110111100011011110101011 7
b10111110111011110011011110101011 =
1'
#550
0'
#555
0:
14
1#
b1111101110111100110111101010110 =
b11111011101111000110111101010110 7
b11011111011101111000000000000000 2
1'
#560
0'
#565
1:
b10111110111011110000000000000000 2
b11110111011110001101111010101101 7
b11111011101111001101111010101101 =
1'
#570
0'
#575
0#
b11110111011110011011110101011011 =
b11101110111100011011110101011011 7
b1111101110111100000000000000000 2
1'
#580
0'
#585
1#
b11111011101111000000000000000000 2
b11011101111000110111101010110110 7
b11101110111100110111101010110110 =
1'
#590
0'
#595
b11011101111001101111010101101101 =
b10111011110001101111010101101101 7
b11110111011110000000000000000000 2
1'
#600
0'
#605
04
b11101110111100000000000000000000 2
b1110111100011011110101011011011 7
b10111011110011011110101011011011 =
1'
#610
0'
#615
0:
14
b1110111100110111101010110110111 =
b11101111000110111101010110110111 7
b11011101111000000000000000000000 2
1'
#620
0'
#625
1:
b10111011110000000000000000000000 2
b11011110001101111010101101101111 7
b11101111001101111010101101101111 =
1'
#630
0'
#635
0#
b11011110011011110101011011011111 =
b10111100011011110101011011011111 7
b1110111100000000000000000000000 2
1'
#640
0'
#645
1#
04
b11101111000000000000000000000000 2
b1111000110111101010110110111110 7
b10111100110111101010110110111110 =
1'
#650
0'
#655
0:
14
b1111001101111010101101101111101 =
b11110001101111010101101101111101 7
b11011110000000000000000000000000 2
1'
#660
0'
#665
1:
b10111100000000000000000000000000 2
b11100011011110101011011011111011 7
b11110011011110101011011011111011 =
1'
#670
0'
#675
0#
b11100110111101010110110111110111 =
b11000110111101010110110111110111 7
b1111000000000000000000000000000 2
1'
#680
0'
#685
1#
b11110000000000000000000000000000 2
b10001101111010101101101111101110 7
b11001101111010101101101111101110 =
1'
#690
0'
#695
04
b10011011110101011011011111011101 =
b11011110101011011011111011101 7
b11100000000000000000000000000000 2
1'
#700
0'
#705
0:
b11000000000000000000000000000000 2
b110111101010110110111110111011 7
b110111101010110110111110111011 =
1'
#710
0'
#715
b1101111010101101101111101110111 =
b1101111010101101101111101110111 7
b10000000000000000000000000000000 2
1'
#720
0'
#725
0#
14
1:
b0 2
b11011110101011011011111011101111 7
b11011110101011011011111011101111 =
1'
#730
0'
b11 5
1-
#735
b10111101010110110111110111011110 =
b11011110101011011011111011101111 !
b11011110101011011011111011101111 8
1'
#740
0'
b10 5
0-
#745
0:
b10111101010110110111110111011110 7
b1111010101101101111101110111100 =
1'
#750
0'
b11 0
1)
b0 (
b0 /
b0 @
b10 B
b0 A
b1 .
#755
1:
04
b11110101011011011111011101111000 =
b1111010101101101111101110111100 7
1'
#760
0'
b10 0
0)
#765
14
b11110101011011011111011101111000 7
b11101010110110111110111011110000 =
1'
#770
0'
#775
b11010101101101111101110111100000 =
b11101010110110111110111011110000 7
1'
#780
0'
#785
b11010101101101111101110111100000 7
b10101011011011111011101111000000 =
1'
#790
0'
#795
0:
b1010110110111110111011110000000 =
b10101011011011111011101111000000 7
1'
#800
0'
#805
04
1:
b1010110110111110111011110000000 7
b10101101101111101110111100000000 =
1'
#810
0'
#815
0:
14
b1011011011111011101111000000000 =
b10101101101111101110111100000000 7
1'
#820
0'
#825
04
1:
b1011011011111011101111000000000 7
b10110110111110111011110000000000 =
1'
#830
0'
#835
0:
14
b1101101111101110111100000000000 =
b10110110111110111011110000000000 7
1'
#840
0'
#845
04
1:
b1101101111101110111100000000000 7
b11011011111011101111000000000000 =
1'
#850
0'
#855
14
b10110111110111011110000000000000 =
b11011011111011101111000000000000 7
1'
#860
0'
#865
0:
b10110111110111011110000000000000 7
b1101111101110111100000000000000 =
1'
#870
0'
#875
1:
04
b11011111011101111000000000000000 =
b1101111101110111100000000000000 7
1'
#880
0'
#885
14
b11011111011101111000000000000000 7
b10111110111011110000000000000000 =
1'
#890
0'
#895
0:
b1111101110111100000000000000000 =
b10111110111011110000000000000000 7
1'
#900
0'
#905
04
1:
b1111101110111100000000000000000 7
b11111011101111000000000000000000 =
1'
#910
0'
#915
14
b11110111011110000000000000000000 =
b11111011101111000000000000000000 7
1'
#920
0'
#925
b11110111011110000000000000000000 7
b11101110111100000000000000000000 =
1'
#930
0'
#935
b11011101111000000000000000000000 =
b11101110111100000000000000000000 7
1'
#940
0'
#945
b11011101111000000000000000000000 7
b10111011110000000000000000000000 =
1'
#950
0'
#955
0:
b1110111100000000000000000000000 =
b10111011110000000000000000000000 7
1'
#960
0'
#965
04
1:
b1110111100000000000000000000000 7
b11101111000000000000000000000000 =
1'
#970
0'
#975
14
b11011110000000000000000000000000 =
b11101111000000000000000000000000 7
1'
#980
0'
#985
b11011110000000000000000000000000 7
b10111100000000000000000000000000 =
1'
#990
0'
#995
0:
b1111000000000000000000000000000 =
b10111100000000000000000000000000 7
1'
#1000
0'
#1005
04
1:
b1111000000000000000000000000000 7
b11110000000000000000000000000000 =
1'
#1010
0'
#1015
14
b11100000000000000000000000000000 =
b11110000000000000000000000000000 7
1'
#1020
0'
#1025
b11100000000000000000000000000000 7
b11000000000000000000000000000000 =
1'
#1030
0'
#1035
b10000000000000000000000000000000 =
b11000000000000000000000000000000 7
1'
#1040
0'
#1045
0:
b10000000000000000000000000000000 7
b0 =
1'
#1050
0'
#1055
04
b0 7
1'
#1060
0'
#1065
1'
#1070
0'
#1075
1'
#1080
0'
b11 ;
1+
#1085
b0 "
b0 >
1'
#1090
0'
b10 ;
0+
#1095
1'
#1100
0'
b11 0
1)
b0 ?
#1105
1'
#1110
0'
b10 0
0)
