projects/VLSI/CLA/cla_adder.vcd
$date
	Sat Jul 26 02:56:45 2025
$end
$version
	Icarus Verilog
$end
$timescale
	1s
$end
$scope module CLA_Adder_TB $end
$var wire 16 ! Sum [15:0] $end
$var wire 1 " Cout $end
$var parameter 32 # CLK_PERIOD $end
$var parameter 32 $ N $end
$var parameter 32 % NUM_TESTS $end
$var reg 16 & A [15:0] $end
$var reg 16 ' B [15:0] $end
$var reg 1 ( Cin $end
$var reg 1 ) clk $end
$var reg 1 * reset_n $end
$var integer 32 + fail_count [31:0] $end
$var integer 32 , pass_count [31:0] $end
$var integer 32 - test_count [31:0] $end
$scope module dut $end
$var wire 16 . A [15:0] $end
$var wire 16 / B [15:0] $end
$var wire 1 ( Cin $end
$var wire 16 0 G [15:0] $end
$var wire 16 1 P [15:0] $end
$var wire 1 ) clk $end
$var wire 1 * reset_n $end
$var parameter 32 2 N $end
$var reg 1 " Cout $end
$var reg 17 3 Cs [16:0] $end
$var reg 1 4 NextCout $end
$var reg 16 5 NextSum [15:0] $end
$var reg 16 6 Sum [15:0] $end
$scope begin $ivl_for_loop0 $end
$var integer 32 7 i [31:0] $end
$upscope $end
$upscope $end
$scope begin $unm_blk_14 $end
$var integer 32 8 i [31:0] $end
$upscope $end
$scope task test_random $end
$var reg 17 9 actual_result [16:0] $end
$var reg 17 : calc_sum [16:0] $end
$var reg 17 ; expected_result [16:0] $end
$var reg 16 < rand_A [15:0] $end
$var reg 16 = rand_B [15:0] $end
$var reg 1 > rand_Cin $end
$var integer 32 ? test_num [31:0] $end
$upscope $end
$scope task test_single $end
$var reg 17 @ actual_result [16:0] $end
$var reg 17 A expected_result [16:0] $end
$var integer 32 B test_index [31:0] $end
$upscope $end
$upscope $end
$enddefinitions $end
$comment Show the parameter values. $end
$dumpall
b10000 2
b11010 %
b10000 $
b1010 #
$end
#0
$dumpvars
bx B
bx A
bx @
bx ?
x>
bx =
bx <
bx ;
bx :
bx 9
bx 8
b10000 7
bx 6
b0 5
04
b0 3
b0 1
b0 0
b0 /
b0 .
b0 -
b0 ,
b0 +
0*
0)
0(
b0 '
b0 &
x"
bx !
$end
#5
0"
b0 !
b0 6
1)
#10
0)
#15
1*
1)
#20
0)
#25
b1 -
b0 B
b0 8
1)
#30
0)
#35
1)
#36
b1 5
b10000 7
b1 3
1(
b10 -
b1 B
b1 8
b1 ,
b0 @
b0 A
#40
0)
#45
b1 !
b1 6
1)
#46
b10 5
b10000 7
b10 3
b1 0
0(
b1 '
b1 /
b1 &
b1 .
b11 -
b10 B
b10 8
b10 ,
b1 @
b1 A
#50
0)
#55
b10 !
b10 6
1)
#56
b11 5
b10000 7
b11 3
1(
b100 -
b11 B
b11 8
b11 ,
b10 @
b10 A
#60
0)
#65
b11 !
b11 6
1)
#66
b1111111111111111 5
b10000 7
b0 3
b1111111111111111 1
b0 0
0(
b0 '
b0 /
b1111111111111111 &
b1111111111111111 .
b101 -
b100 B
b100 8
b100 ,
b11 @
b11 A
#70
0)
#75
b1111111111111111 !
b1111111111111111 6
1)
#76
14
b0 5
b11111111111111110 3
b10000 7
b1111111111111110 1
b1 0
b1 '
b1 /
b110 -
b101 B
b101 8
b101 ,
b1111111111111111 @
b1111111111111111 A
#80
0)
#85
1"
b0 !
b0 6
1)
#86
b1111111111111110 5
b10000 7
b0 1
b1111111111111111 0
b1111111111111111 '
b1111111111111111 /
b111 -
b110 B
b110 8
b110 ,
b10000000000000000 @
b10000000000000000 A
#90
0)
#95
b1111111111111110 !
b1111111111111110 6
1)
#96
b1111111111111111 5
b10000 7
b11111111111111111 3
1(
b1000 -
b111 B
b111 8
b111 ,
b11111111111111110 @
b11111111111111110 A
#100
0)
#105
b1111111111111111 !
b1111111111111111 6
1)
#106
04
b100 5
b10000 7
b100 3
b10 0
0(
b10 '
b10 /
b10 &
b10 .
b1001 -
b1000 B
b1000 8
b1000 ,
b11111111111111111 @
b11111111111111111 A
#110
0)
#115
0"
b100 !
b100 6
1)
#116
b1000 5
b1000 3
b10000 7
b100 0
b100 '
b100 /
b100 &
b100 .
b1010 -
b1001 B
b1001 8
b1001 ,
b100 @
b100 A
#120
0)
#125
b1000 !
b1000 6
1)
#126
b10000 5
b10000 3
b10000 7
b1000 0
b1000 '
b1000 /
b1000 &
b1000 .
b1011 -
b1010 B
b1010 8
b1010 ,
b1000 @
b1000 A
#130
0)
#135
b10000 !
b10000 6
1)
#136
14
b0 5
b10000000000000000 3
b10000 7
b1000000000000000 0
b1000000000000000 '
b1000000000000000 /
b1000000000000000 &
b1000000000000000 .
b1100 -
b1011 B
b1011 8
b1011 ,
b10000 @
b10000 A
#140
0)
#145
1"
b0 !
b0 6
1)
#146
04
b1111111111111111 5
b0 3
b10000 7
b1111111111111111 1
b0 0
b1010101010101010 '
b1010101010101010 /
b101010101010101 &
b101010101010101 .
b1101 -
b1100 B
b1100 8
b1100 ,
b10000000000000000 @
b10000000000000000 A
#150
0)
#155
0"
b1111111111111111 !
b1111111111111111 6
1)
#156
b101010101010101 '
b101010101010101 /
b1010101010101010 &
b1010101010101010 .
b1110 -
b1101 B
b1101 8
b1101 ,
b1111111111111111 @
b1111111111111111 A
#160
0)
#165
1)
#166
14
b0 5
b10000 7
b11111111111111111 3
1(
b1010101010101010 '
b1010101010101010 /
b101010101010101 &
b101010101010101 .
b1111 -
b1110 B
b1110 8
b1110 ,
#170
0)
#175
1"
b0 !
b0 6
1)
#176
04
b110100010101100 5
b10000 7
b10110011100000 3
b100010001001100 1
b1001000110000 0
0(
b101011001111000 '
b101011001111000 /
b1001000110100 &
b1001000110100 .
b10000 -
b1111 B
b1111 8
b1111 ,
b10000000000000000 @
b10000000000000000 A
#180
0)
#185
0"
b110100010101100 !
b110100010101100 6
1)
#186
b1011111000000001 5
b11111111000 3
b10000 7
b1011100111111001 1
b1000000100 0
b1001000110100 '
b1001000110100 /
b1010101111001101 &
b1010101111001101 .
b10001 -
b10000 B
b10000 8
b10000 ,
b110100010101100 @
b110100010101100 A
#190
0)
#195
b1011111000000001 !
b1011111000000001 6
1)
#196
b1000000000000000 5
b1111111111111110 3
b10000 7
b111111111111110 1
b1 0
b1 '
b1 /
b111111111111111 &
b111111111111111 .
b10010 -
b10001 B
b10001 8
b10001 ,
b1011111000000001 @
b1011111000000001 A
#200
0)
#205
b1000000000000000 !
b1000000000000000 6
1)
#206
14
b0 5
b10000 7
b11111111111111111 3
b1111111111111111 1
b0 0
1(
b111111111111111 '
b111111111111111 /
b1000000000000000 &
b1000000000000000 .
b10011 -
b10010 B
b10010 8
b10010 ,
b1000000000000000 @
b1000000000000000 A
#210
0)
#215
1"
b0 !
b0 6
1)
#216
04
b100000000 5
b10000 7
b111111110 3
b11111110 1
b1 0
0(
b1 '
b1 /
b11111111 &
b11111111 .
b10100 -
b10011 B
b10011 8
b10011 ,
b10000000000000000 @
b10000000000000000 A
#220
0)
#225
0"
b100000000 !
b100000000 6
1)
#226
b1000000000000 5
b1111111111110 3
b10000 7
b111111111110 1
b111111111111 &
b111111111111 .
b10101 -
b10100 B
b10100 8
b10100 ,
b100000000 @
b100000000 A
#230
0)
#235
b1000000000000 !
b1000000000000 6
1)
#236
b1000000000000000 5
b1111111111111110 3
b10000 7
b111111111111110 1
b111111111111111 &
b111111111111111 .
b10110 -
b10101 B
b10101 8
b10101 ,
b1000000000000 @
b1000000000000 A
#240
0)
#245
b1000000000000000 !
b1000000000000000 6
1)
#246
b1111111111111111 5
b0 3
b10000 7
b1111111111111111 1
b0 0
b1111111111111111 '
b1111111111111111 /
b0 &
b0 .
b10111 -
b10110 B
b10110 8
b10110 ,
b1000000000000000 @
b1000000000000000 A
#250
0)
#255
b1111111111111111 !
b1111111111111111 6
1)
#256
14
b0 5
b10000 7
b11111111111111111 3
1(
b11000 -
b10111 B
b10111 8
b10111 ,
b1111111111111111 @
b1111111111111111 A
#260
0)
#265
1"
b0 !
b0 6
1)
#266
04
b1111111111111111 5
b10000 7
b0 3
0(
b1111111111111110 '
b1111111111111110 /
b1 &
b1 .
b11001 -
b11000 B
b11000 8
b11000 ,
b10000000000000000 @
b10000000000000000 A
#270
0)
#275
0"
b1111111111111111 !
b1111111111111111 6
1)
#276
14
b0 5
b10000 7
b11111111111111111 3
1(
b11010 -
b11001 B
b11001 8
b11001 ,
b1111111111111111 @
b1111111111111111 A
#280
0)
#285
1"
b0 !
b0 6
1)
#286
04
b1001001110100110 5
b1111100000000011 3
b10000 7
b110101110100101 1
b1010000000000 0
b101111010000001 '
b101111010000001 /
b11010100100100 &
b11010100100100 .
b1001001110100110 :
1>
b101111010000001 =
b11010100100100 <
b11011 -
b1 ?
b1 8
b11010 ,
b10000000000000000 @
b10000000000000000 A
#290
0)
#295
0"
b1001001110100110 !
b1001001110100110 6
1)
#296
b1101000101110001 5
b1111110000011111 3
b10000 7
b10110101101110 1
b101001000000001 0
b111101100001101 '
b111101100001101 /
b101011001100011 &
b101011001100011 .
b1101000101110001 :
b111101100001101 =
b101011001100011 <
b11100 -
b10 ?
b10 8
b11011 ,
b1001001110100110 9
b1001001110100110 ;
#300
0)
#305
b1101000101110001 !
b1101000101110001 6
1)
#306
b1101011001111000 5
b1111 3
b10000 7
b1101011001110111 1
b0 0
b101001000010010 '
b101001000010010 /
b1000010001100101 &
b1000010001100101 .
b1101011001111000 :
b101001000010010 =
b1000010001100101 <
b11101 -
b11 ?
b11 8
b11100 ,
b1101000101110001 9
b1101000101110001 ;
#310
0)
#315
b1101011001111000 !
b1101011001111000 6
1)
#316
14
b1011111010000100 5
b11000001011111111 3
b10000 7
b11110001111011 1
b1100000100000100 0
b1111000101110110 '
b1111000101110110 /
b1100110100001101 &
b1100110100001101 .
b11011111010000100 :
b1111000101110110 =
b1100110100001101 <
b11110 -
b100 ?
b100 8
b11101 ,
b1101011001111000 9
b1101011001111000 ;
#320
0)
#325
1"
b1011111010000100 !
b1011111010000100 6
1)
#326
b100111101111010 5
b11110111100011011 3
b10000 7
b1010000001100001 1
b101011110001100 0
b1111011110001100 '
b1111011110001100 /
b101011111101101 &
b101011111101101 .
b10100111101111010 :
b1111011110001100 =
b101011111101101 <
b11111 -
b101 ?
b101 8
b11110 ,
b11011111010000100 9
b11011111010000100 ;
#330
0)
#335
b100111101111010 !
b100111101111010 6
1)
#336
04
b1010100110001011 5
b10000 7
b100110001000 3
b1010000000000011 1
b10011000100 0
0(
b1000010011000101 '
b1000010011000101 /
b10010011000110 &
b10010011000110 .
b1010100110001011 :
0>
b1000010011000101 =
b10010011000110 <
b100000 -
b110 ?
b110 8
b11111 ,
b10100111101111010 9
b10100111101111010 ;
#340
0)
#345
0"
b1010100110001011 !
b1010100110001011 6
1)
#346
14
b110101001011100 5
b11110111111001110 3
b10000 7
b1000010110010010 1
b111001001100101 0
b111001001110111 '
b111001001110111 /
b1111011111100101 &
b1111011111100101 .
b10110101001011100 :
b111001001110111 =
b1111011111100101 <
b100001 -
b111 ?
b111 8
b100000 ,
b1010100110001011 9
b1010100110001011 ;
#350
0)
#355
1"
b110101001011100 !
b110101001011100 6
1)
#356
b100010110000001 5
b11111011111111100 3
b10000 7
b1011001001111101 1
b100100110000010 0
b110100111110010 '
b110100111110010 /
b1101101110001111 &
b1101101110001111 .
b10100010110000001 :
b110100111110010 =
b1101101110001111 <
b100010 -
b1000 ?
b1000 8
b100001 ,
b10110101001011100 9
b10110101001011100 ;
#360
0)
#365
b100010110000001 !
b100010110000001 6
1)
#366
04
b1100100110101101 5
b1111110110000000 3
b10000 7
b11010000101101 1
b100101011000000 0
b100111011000101 '
b100111011000101 /
b111101011101000 &
b111101011101000 .
b1100100110101101 :
b100111011000101 =
b111101011101000 <
b100011 -
b1001 ?
b1001 8
b100010 ,
b10100010110000001 9
b10100010110000001 ;
#370
0)
#375
0"
b1100100110101101 !
b1100100110101101 6
1)
#376
b1000000011101011 5
b10000 7
b1111000001111011 3
b111000010010000 1
b100000101101 0
1(
b101100000101101 '
b101100000101101 /
b10100010111101 &
b10100010111101 .
b1000000011101011 :
1>
b101100000101101 =
b10100010111101 <
b100100 -
b1010 ?
b1010 8
b100011 ,
b1100100110101101 9
b1100100110101101 ;
#380
0)
#385
b1000000011101011 !
b1000000011101011 6
1)
#386
b1011 8
b100100 ,
b1000000011101011 9
b1000000011101011 ;
